// Vitest Snapshot v1

exports[`WeatherSummary > renders weather summary 1`] = `
"<div class=\\"weather-summary grid\\">
  <div class=\\"bottomBordered\\">
    <div>weather.sunrise</div>
    <div>07:11</div>
  </div>
  <div class=\\"bottomBordered\\">
    <div>weather.sunset</div>
    <div>16:28</div>
  </div>
  <div class=\\"bottomBordered\\">
    <div>weather.humidity</div>
    <div>generic.percent</div>
  </div>
  <div class=\\"bottomBordered\\">
    <div>weather.visibility</div>
    <div>generic.kilometers</div>
  </div>
  <div class=\\"\\">
    <div>weather.clouds</div>
    <div>generic.percent</div>
  </div>
</div>"
`;
